{"data":[{"coordinates":{"type":"Point","coordinates":[114.3,30.6]},"_id":"692d769b358c8cf7517297b0","title":"COVID-19 Pandemic","year":2019,"category":"Disease","continent":"Asia","sources":[],"__v":0,"createdAt":"2025-12-01T11:06:03.990Z","updatedAt":"2025-12-01T11:06:03.990Z"},{"coordinates":{"type":"Point","coordinates":[31,30]},"_id":"692d769b358c8cf7517297af","title":"Arab Spring","year":2011,"category":"Politics","continent":"Middle East","sources":[],"__v":0,"createdAt":"2025-12-01T11:06:03.990Z","updatedAt":"2025-12-01T11:06:03.990Z"},{"coordinates":{"type":"Point","coordinates":[-74,40.71]},"_id":"692d769b358c8cf7517297ae","title":"9/11 Attacks","year":2001,"category":"War","continent":"Americas","sources":[],"__v":0,"createdAt":"2025-12-01T11:06:03.990Z","updatedAt":"2025-12-01T11:06:03.990Z"},{"coordinates":{"type":"Point","coordinates":[13.4,52.5]},"_id":"692d769b358c8cf7517297ad","title":"Fall of Berlin Wall","year":1989,"category":"Politics","continent":"Europe","sources":[],"__v":0,"createdAt":"2025-12-01T11:06:03.990Z","updatedAt":"2025-12-01T11:06:03.990Z"},{"coordinates":{"type":"Point","coordinates":[-80.6,28.5]},"_id":"692d769b358c8cf7517297ac","title":"First Man on the Moon","year":1969,"category":"Space","continent":"Americas","sources":[],"__v":0,"createdAt":"2025-12-01T11:06:03.990Z","updatedAt":"2025-12-01T11:06:03.990Z"},{"coordinates":{"type":"Point","coordinates":[-73.97,40.75]},"_id":"692d769b358c8cf7517297ab","title":"Founding of United Nations","year":1945,"category":"Politics","continent":"Americas","sources":[],"__v":0,"createdAt":"2025-12-01T11:06:03.990Z","updatedAt":"2025-12-01T11:06:03.990Z"},{"coordinates":{"type":"Point","coordinates":[132,34.3]},"_id":"692d769b358c8cf7517297aa","title":"Atomic Bombings of Japan","year":1945,"category":"War","continent":"Asia","sources":[],"__v":0,"createdAt":"2025-12-01T11:06:03.990Z","updatedAt":"2025-12-01T11:06:03.990Z"},{"coordinates":{"type":"Point","coordinates":[13.4,52.5]},"_id":"692d769b358c8cf7517297a9","title":"World War II","year":1939,"category":"War","continent":"Europe","sources":[],"__v":0,"createdAt":"2025-12-01T11:06:03.990Z","updatedAt":"2025-12-01T11:06:03.990Z"},{"coordinates":{"type":"Point","coordinates":[-0.1,51.5]},"_id":"692d769b358c8cf7517297a8","title":"Discovery of Penicillin","year":1928,"category":"Science","continent":"Europe","sources":[],"__v":0,"createdAt":"2025-12-01T11:06:03.990Z","updatedAt":"2025-12-01T11:06:03.990Z"},{"coordinates":{"type":"Point","coordinates":[37.6,55.75]},"_id":"692d769b358c8cf7517297a7","title":"Russian Revolution","year":1917,"category":"War","continent":"Europe","sources":[],"__v":0,"createdAt":"2025-12-01T11:06:03.990Z","updatedAt":"2025-12-01T11:06:03.990Z"},{"coordinates":{"type":"Point","coordinates":[2.4,50]},"_id":"692d769b358c8cf7517297a6","title":"World War I","year":1914,"category":"War","continent":"Europe","sources":[],"__v":0,"createdAt":"2025-12-01T11:06:03.990Z","updatedAt":"2025-12-01T11:06:03.990Z"},{"coordinates":{"type":"Point","coordinates":[-71.06,42.36]},"_id":"692d769b358c8cf7517297a4","title":"Invention of Telephone","year":1876,"category":"Invention","continent":"Americas","sources":[],"__v":0,"createdAt":"2025-12-01T11:06:03.990Z","updatedAt":"2025-12-01T11:06:03.990Z"},{"coordinates":{"type":"Point","coordinates":[32.55,30.5]},"_id":"692d769b358c8cf7517297a5","title":"Completion of Suez Canal","year":1869,"category":"Engineering","continent":"Africa","sources":[],"__v":0,"createdAt":"2025-12-01T11:06:03.990Z","updatedAt":"2025-12-01T11:06:03.990Z"},{"coordinates":{"type":"Point","coordinates":[-83,39]},"_id":"692d769b358c8cf7517297a3","title":"American Civil War","year":1861,"category":"War","continent":"Americas","sources":[],"__v":0,"createdAt":"2025-12-01T11:06:03.990Z","updatedAt":"2025-12-01T11:06:03.990Z"},{"coordinates":{"type":"Point","coordinates":[2.352,48.856]},"_id":"692d769b358c8cf7517297a2","title":"Napoleon Crowned Emperor","year":1804,"category":"Empire","continent":"Europe","sources":[],"__v":0,"createdAt":"2025-12-01T11:06:03.990Z","updatedAt":"2025-12-01T11:06:03.990Z"},{"coordinates":{"type":"Point","coordinates":[2.352,48.856]},"_id":"692d769b358c8cf7517297a1","title":"French Revolution","year":1789,"category":"War","continent":"Europe","sources":[],"__v":0,"createdAt":"2025-12-01T11:06:03.989Z","updatedAt":"2025-12-01T11:06:03.989Z"},{"coordinates":{"type":"Point","coordinates":[-77,38.9]},"_id":"692d769b358c8cf7517297a0","title":"American Revolution","year":1776,"category":"War","continent":"Americas","sources":[],"__v":0,"createdAt":"2025-12-01T11:06:03.989Z","updatedAt":"2025-12-01T11:06:03.989Z"},{"coordinates":{"type":"Point","coordinates":[-2.24,53.48]},"_id":"692d769b358c8cf75172979f","title":"Industrial Revolution","year":1760,"category":"Industry","continent":"Europe","sources":[],"__v":0,"createdAt":"2025-12-01T11:06:03.989Z","updatedAt":"2025-12-01T11:06:03.989Z"},{"coordinates":{"type":"Point","coordinates":[-61.5,15.5]},"_id":"692d769b358c8cf75172979d","title":"Columbus Reaches America","year":1492,"category":"Exploration","continent":"Americas","sources":[],"__v":0,"createdAt":"2025-12-01T11:06:03.989Z","updatedAt":"2025-12-01T11:06:03.989Z"},{"coordinates":{"type":"Point","coordinates":[8.247,50]},"_id":"692d769b358c8cf75172979c","title":"Gutenberg Prints First Book","year":1455,"category":"Invention","continent":"Europe","sources":[],"__v":0,"createdAt":"2025-12-01T11:06:03.989Z","updatedAt":"2025-12-01T11:06:03.989Z"}],"total":200,"page":1,"pages":10}